RV32IM_3stage_Extended/simulation/pipeline_tb.vcd
$date
   Sat Apr 25 23:52:38 2026
$end

$version
  2025.2
  $dumpfile ("pipeline_tb.vcd") 
$end

$timescale
  1ps
$end

$scope module tb_pipeline $end
$var reg 1 ! clk $end
$var reg 1 " reset $end
$var wire 32 # inst_mem_address [31:0] $end
$var wire 32 $ inst_mem_read_data [31:0] $end
$var wire 1 % inst_mem_is_ready $end
$var wire 32 & dmem_read_address [31:0] $end
$var wire 1 ' dmem_read_ready $end
$var wire 32 ( dmem_read_data [31:0] $end
$var wire 32 ) dmem_write_address [31:0] $end
$var wire 1 * dmem_write_ready $end
$var wire 32 + dmem_write_data [31:0] $end
$var wire 4 , dmem_write_byte [3:0] $end
$var wire 1 - exception $end
$var wire 32 . pc_out [31:0] $end
$scope module uut $end
$var wire 1 / clk $end
$var wire 1 0 reset $end
$var wire 1 1 stall $end
$var wire 1 - exception $end
$var wire 32 . pc_out [31:0] $end
$var wire 32 # inst_mem_address [31:0] $end
$var wire 1 2 inst_mem_is_valid $end
$var wire 32 $ inst_mem_read_data [31:0] $end
$var wire 1 % inst_mem_is_ready $end
$var wire 32 & dmem_read_address [31:0] $end
$var wire 1 ' dmem_read_ready $end
$var wire 32 ( dmem_read_data_temp [31:0] $end
$var wire 1 3 dmem_read_valid $end
$var wire 32 ) dmem_write_address [31:0] $end
$var wire 1 * dmem_write_ready $end
$var wire 32 + dmem_write_data [31:0] $end
$var wire 4 , dmem_write_byte [3:0] $end
$var wire 1 4 dmem_write_valid $end
$var wire 32 5 dmem_read_data [31:0] $end
$var wire 2 6 dmem_read_offset [1:0] $end
$var wire 1 7 dmem_read_valid_checker $end
$var reg 32 8 immediate [31:0] $end
$var wire 1 9 immediate_sel $end
$var wire 5 : src1_select [4:0] $end
$var wire 5 ; src2_select [4:0] $end
$var wire 5 < dest_reg_sel [4:0] $end
$var wire 3 = alu_operation [2:0] $end
$var wire 1 > arithsubtype $end
$var wire 1 ? mem_write $end
$var wire 1 @ mem_to_reg $end
$var wire 1 A illegal_inst $end
$var wire 32 B execute_immediate [31:0] $end
$var wire 1 C alu $end
$var wire 1 D lui $end
$var wire 1 E jal $end
$var wire 1 F jalr $end
$var wire 1 G branch $end
$var reg 1 H stall_read_reg $end
$var wire 1 I execute_stall $end
$var wire 1 J stall_read $end
$var wire 32 K instruction [31:0] $end
$var wire 32 L reg_rdata2 [31:0] $end
$var wire 32 M reg_rdata1 [31:0] $end
$var wire 32 N pc [31:0] $end
$var wire 32 O inst_fetch_pc [31:0] $end
$var reg 32 P fetch_pc [31:0] $end
$var wire 1 Q wb_stall_first $end
$var wire 1 R wb_stall_second $end
$var wire 1 S wb_stall $end
$var wire 32 T next_pc [31:0] $end
$var wire 32 U write_address [31:0] $end
$var wire 1 V branch_taken $end
$var wire 1 W branch_stall $end
$var wire 32 X alu_operand1 [31:0] $end
$var wire 32 Y alu_operand2 [31:0] $end
$var wire 1 Z wb_alu_to_reg $end
$var wire 32 [ wb_result [31:0] $end
$var wire 3 \ wb_alu_operation [2:0] $end
$var wire 1 ] wb_mem_write $end
$var wire 1 ^ wb_mem_to_reg $end
$var wire 5 _ wb_dest_reg_sel [4:0] $end
$var wire 1 ` wb_branch $end
$var wire 1 a wb_branch_nxt $end
$var wire 32 b wb_write_address [31:0] $end
$var wire 2 c wb_read_address [1:0] $end
$var wire 4 d wb_write_byte [3:0] $end
$var wire 32 e wb_write_data [31:0] $end
$var wire 32 f wb_read_data [31:0] $end
$var wire 1 g mul_en $end
$var wire 1 h div_en $end
$var wire 1 i mau_en $end
$var wire 1 j sqrt_en $end
$var wire 7 k funct7 [6:0] $end
$var integer 32 l i [31:0] $end
$scope module IF_ID_stage $end
$var wire 1 / clk $end
$var wire 1 0 reset $end
$var wire 1 1 stall $end
$var reg 1 m exception $end
$var wire 1 2 inst_mem_is_valid $end
$var wire 32 $ inst_mem_read_data [31:0] $end
$var wire 1 J stall_read_i $end
$var wire 32 O inst_fetch_pc [31:0] $end
$var wire 32 K instruction_i [31:0] $end
$var wire 1 S wb_stall $end
$var wire 1 Z wb_alu_to_reg $end
$var wire 1 ^ wb_mem_to_reg $end
$var wire 5 _ wb_dest_reg_sel [4:0] $end
$var wire 32 [ wb_result [31:0] $end
$var wire 32 f wb_read_data [31:0] $end
$var wire 2 n inst_mem_offset [1:0] $end
$var wire 32 B execute_immediate_w [31:0] $end
$var wire 1 9 immediate_sel_w $end
$var wire 1 C alu_w $end
$var wire 1 D lui_w $end
$var wire 1 E jal_w $end
$var wire 1 F jalr_w $end
$var wire 1 G branch_w $end
$var wire 1 ? mem_write_w $end
$var wire 1 @ mem_to_reg_w $end
$var wire 1 > arithsubtype_w $end
$var wire 1 g mul_en_w $end
$var wire 1 h div_en_w $end
$var wire 1 i mau_en_w $end
$var wire 1 j sqrt_en_w $end
$var wire 32 N pc_w [31:0] $end
$var wire 5 : src1_select_w [4:0] $end
$var wire 5 ; src2_select_w [4:0] $end
$var wire 5 < dest_reg_sel_w [4:0] $end
$var wire 3 = alu_operation_w [2:0] $end
$var wire 7 k funct7_w [6:0] $end
$var wire 1 A illegal_inst_w $end
$var wire 32 K instruction_o [31:0] $end
$var reg 32 o immediate [31:0] $end
$var reg 1 p illegal_inst $end
$var reg 32 q saved_inst [31:0] $end
$var reg 1 r was_stalled $end
$var wire 32 s decoded_inst [31:0] $end
$scope module u_id_ex $end
$var wire 1 / clk $end
$var wire 1 0 reset $end
$var wire 1 J stall_n $end
$var wire 32 t immediate_i [31:0] $end
$var wire 1 u immediate_sel_i $end
$var wire 1 v alu_i $end
$var wire 1 w lui_i $end
$var wire 1 x jal_i $end
$var wire 1 y jalr_i $end
$var wire 1 z branch_i $end
$var wire 1 { mem_write_i $end
$var wire 1 | mem_to_reg_i $end
$var wire 1 } arithsubtype_i $end
$var wire 1 ~ mul_en_i $end
$var wire 1 !! div_en_i $end
$var wire 1 "! mau_en_i $end
$var wire 1 #! sqrt_en_i $end
$var wire 32 O pc_i [31:0] $end
$var wire 5 $! src1_sel_i [19:15] $end
$var wire 5 %! src2_sel_i [24:20] $end
$var wire 5 &! dest_reg_sel_i [11:7] $end
$var wire 3 '! alu_op_i [14:12] $end
$var wire 7 (! funct7_i [31:25] $end
$var wire 1 )! illegal_inst_i $end
$var reg 32 *! execute_immediate_o [31:0] $end
$var reg 1 +! immediate_sel_o $end
$var reg 1 ,! alu_o $end
$var reg 1 -! lui_o $end
$var reg 1 .! jal_o $end
$var reg 1 /! jalr_o $end
$var reg 1 0! branch_o $end
$var reg 1 1! mem_write_o $end
$var reg 1 2! mem_to_reg_o $end
$var reg 1 3! arithsubtype_o $end
$var reg 1 4! mul_en_o $end
$var reg 1 5! div_en_o $end
$var reg 1 6! mau_en_o $end
$var reg 1 7! sqrt_en_o $end
$var reg 32 8! pc_o [31:0] $end
$var reg 5 9! src1_sel_o [4:0] $end
$var reg 5 :! src2_sel_o [4:0] $end
$var reg 5 ;! dest_reg_sel_o [4:0] $end
$var reg 3 <! alu_op_o [2:0] $end
$var reg 7 =! funct7_o [6:0] $end
$var reg 1 >! illegal_inst_o $end
$upscope $end
$upscope $end
$scope module execute $end
$var wire 1 / clk $end
$var wire 1 0 reset $end
$var wire 32 M reg_rdata1 [31:0] $end
$var wire 32 L reg_rdata2 [31:0] $end
$var wire 32 B execute_imm [31:0] $end
$var wire 32 N pc [31:0] $end
$var wire 32 ?! fetch_pc [31:0] $end
$var wire 1 9 immediate_sel $end
$var wire 1 ? mem_write $end
$var wire 1 E jal $end
$var wire 1 F jalr $end
$var wire 1 D lui $end
$var wire 1 C alu $end
$var wire 1 G branch $end
$var wire 1 > arithsubtype $end
$var wire 1 @ mem_to_reg $end
$var wire 1 J stall_read $end
$var wire 1 g mul_en $end
$var wire 1 h div_en $end
$var wire 1 i mau_en $end
$var wire 1 j sqrt_en $end
$var wire 7 k funct7 [6:0] $end
$var wire 5 < dest_reg_sel [4:0] $end
$var wire 3 = alu_op [2:0] $end
$var wire 2 6 dmem_raddr [1:0] $end
$var wire 1 ` wb_branch_i $end
$var wire 1 a wb_branch_nxt_i $end
$var wire 32 X alu_operand1 [31:0] $end
$var wire 32 Y alu_operand2 [31:0] $end
$var wire 32 U write_address [31:0] $end
$var wire 1 W branch_stall $end
$var wire 1 I execute_stall $end
$var reg 32 @! next_pc [31:0] $end
$var reg 1 A! branch_taken $end
$var wire 32 [ wb_result [31:0] $end
$var wire 1 ] wb_mem_write $end
$var wire 1 Z wb_alu_to_reg $end
$var wire 5 _ wb_dest_reg_sel [4:0] $end
$var wire 1 ` wb_branch $end
$var wire 1 a wb_branch_nxt $end
$var wire 1 ^ wb_mem_to_reg $end
$var wire 2 c wb_read_address [1:0] $end
$var wire 3 \ mem_alu_operation [2:0] $end
$var reg 32 B! ex_result [31:0] $end
$var wire 33 C! ex_result_subs [32:0] $end
$var wire 33 D! ex_result_subu [32:0] $end
$var wire 64 E! product [63:0] $end
$var wire 1 F! mul_valid $end
$var wire 32 G! div_result [31:0] $end
$var wire 1 H! div_valid $end
$var wire 32 I! sqrt_res [31:0] $end
$var wire 1 J! sqrt_valid $end
$var wire 32 K! mau_result [31:0] $end
$var wire 32 L! clz_res [31:0] $end
$var wire 1 M! mul_start $end
$var wire 1 N! div_start $end
$var wire 1 O! sqrt_start $end
$scope module u_mul $end
$var wire 1 / clk $end
$var wire 1 P! rst $end
$var wire 1 M! start $end
$var wire 3 = funct3 [2:0] $end
$var wire 32 X operand_a [31:0] $end
$var wire 32 Y operand_b [31:0] $end
$var reg 64 Q! product [63:0] $end
$var reg 1 R! valid $end
$var reg 2 S! state [1:0] $end
$var reg 33 T! a_reg [32:0] $end
$var reg 33 U! b_reg [32:0] $end
$var reg 66 V! prod_reg [65:0] $end
$var wire 1 W! a_is_signed $end
$var wire 1 X! b_is_signed $end
$var wire 33 Y! a_ext [32:0] $end
$var wire 33 Z! b_ext [32:0] $end
$upscope $end
$scope module u_div $end
$var wire 1 / clk $end
$var wire 1 P! rst $end
$var wire 1 N! start $end
$var wire 3 = funct3 [2:0] $end
$var wire 32 X operand_a [31:0] $end
$var wire 32 Y operand_b [31:0] $end
$var reg 32 [! result [31:0] $end
$var reg 1 \! valid $end
$var reg 1 ]! busy $end
$var wire 1 ^! is_signed $end
$var wire 1 _! is_rem $end
$var reg 2 `! state [1:0] $end
$var reg 6 a! count [5:0] $end
$var reg 32 b! Q [31:0] $end
$var reg 32 c! M [31:0] $end
$var reg 32 d! A [31:0] $end
$var reg 1 e! sign_q $end
$var reg 1 f! sign_r $end
$var reg 1 g! div_by_zero $end
$var reg 1 h! overflow $end
$var wire 32 i! abs_a [31:0] $end
$var wire 32 j! abs_b [31:0] $end
$var wire 33 k! sub_res [32:0] $end
$upscope $end
$scope module u_sqrt $end
$var wire 1 / clk $end
$var wire 1 P! rst $end
$var wire 1 O! start $end
$var wire 3 = funct3 [2:0] $end
$var wire 32 X operand_a [31:0] $end
$var wire 32 Y operand_b [31:0] $end
$var reg 32 l! result [31:0] $end
$var reg 1 m! valid $end
$var reg 2 n! state [1:0] $end
$var reg 5 o! count [4:0] $end
$var reg 32 p! d [31:0] $end
$var reg 32 q! q [31:0] $end
$var reg 34 r! r [33:0] $end
$var wire 34 s! next_r [33:0] $end
$var wire 34 t! test_sub [33:0] $end
$upscope $end
$scope module u_mau $end
$var wire 3 = funct3 [2:0] $end
$var wire 32 X operand_a [31:0] $end
$var wire 32 Y operand_b [31:0] $end
$var reg 32 u! result [31:0] $end
$var wire 32 v! abs_result [31:0] $end
$var wire 33 w! a_ext [32:0] $end
$var wire 33 x! b_ext [32:0] $end
$var wire 33 y! diff [32:0] $end
$var wire 32 z! max_result [31:0] $end
$var wire 32 {! min_result [31:0] $end
$upscope $end
$scope module u_clz $end
$var wire 32 X operand_a [31:0] $end
$var wire 32 L! log2_result [31:0] $end
$var wire 5 |! zeros [4:0] $end
$scope function clz_32 $end
$var reg 5 }! clz_32 [4:0] $end
$var reg 32 ~! val [31:0] $end
$upscope $end
$scope function clz_16 $end
$var reg 4 !" clz_16 [3:0] $end
$var reg 16 "" val [15:0] $end
$upscope $end
$scope function clz_8 $end
$var reg 3 #" clz_8 [2:0] $end
$var reg 8 $" val [7:0] $end
$upscope $end
$scope function clz_4 $end
$var reg 2 %" clz_4 [1:0] $end
$var reg 4 &" val [3:0] $end
$upscope $end
$scope function clz_2 $end
$var reg 1 '" clz_2 $end
$var reg 2 (" val [1:0] $end
$upscope $end
$upscope $end
$scope module u_ex_mem_wb $end
$var wire 1 / clk $end
$var wire 1 0 reset_n $end
$var wire 1 J stall_n $end
$var wire 32 )" ex_result [31:0] $end
$var wire 1 *" mem_write $end
$var wire 1 +" alu_to_reg $end
$var wire 5 < dest_reg_sel [4:0] $end
$var wire 1 A! branch_taken $end
$var wire 1 @ mem_to_reg $end
$var wire 2 6 read_address [1:0] $end
$var wire 3 = alu_operation [2:0] $end
$var reg 32 ," ex_mem_result [31:0] $end
$var reg 1 -" ex_mem_mem_write $end
$var reg 1 ." ex_mem_alu_to_reg $end
$var reg 5 /" ex_mem_dest_reg_sel [4:0] $end
$var reg 1 0" ex_mem_branch $end
$var reg 1 1" ex_mem_branch_nxt $end
$var reg 1 2" ex_mem_mem_to_reg $end
$var reg 2 3" ex_mem_read_address [1:0] $end
$var reg 3 4" ex_mem_alu_operation [2:0] $end
$upscope $end
$upscope $end
$scope module wb_stage $end
$var wire 1 / clk $end
$var wire 1 0 reset $end
$var wire 1 J stall_read_i $end
$var wire 32 5" fetch_pc_i [31:0] $end
$var wire 1 ` wb_branch_i $end
$var wire 1 ^ wb_mem_to_reg_i $end
$var wire 1 ? mem_write_i $end
$var wire 32 U write_address_i [31:0] $end
$var wire 32 Y alu_operand2_i [31:0] $end
$var wire 3 = alu_operation_i [2:0] $end
$var wire 3 \ wb_alu_operation_i [2:0] $end
$var wire 2 c wb_read_address_i [1:0] $end
$var wire 32 5 dmem_read_data_i [31:0] $end
$var wire 1 4 dmem_write_valid_i $end
$var wire 32 # inst_mem_address_o [31:0] $end
$var wire 1 % inst_mem_is_ready_o $end
$var wire 1 S wb_stall_o $end
$var reg 32 6" wb_write_address_o [31:0] $end
$var reg 32 7" wb_write_data_o [31:0] $end
$var reg 4 8" wb_write_byte_o [3:0] $end
$var reg 32 9" wb_read_data_o [31:0] $end
$var reg 32 :" inst_fetch_pc_o [31:0] $end
$var reg 1 ;" wb_stall_first_o $end
$var reg 1 <" wb_stall_second_o $end
$upscope $end
$upscope $end
$scope module IMEM $end
$var wire 1 =" clk $end
$var wire 32 # pc [31:0] $end
$var reg 32 >" instr [31:0] $end
$var integer 32 ?" i [31:0] $end
$upscope $end
$scope module DMEM $end
$var wire 1 @" clk $end
$var wire 1 ' re $end
$var wire 32 & raddr [31:0] $end
$var reg 32 A" rdata [31:0] $end
$var wire 1 * we $end
$var wire 32 ) waddr [31:0] $end
$var wire 32 + wdata [31:0] $end
$var wire 4 , wstrb [3:0] $end
$var wire 10 B" rindex [9:0] $end
$var wire 10 C" windex [9:0] $end
$var integer 32 D" i [31:0] $end
$upscope $end
$upscope $end
$enddefinitions $end

#0
$dumpvars
0!
0!!
b1111 !"
0"
0"!
bx ""
b0 #
0#!
b111 #"
b0 $
b0 $!
bx $"
0%
b0 %!
b11 %"
b0 &
b0 &!
bx &"
0'
b0 '!
1'"
b0 (
b0 (!
bx ("
b0 )
1)!
bx )"
0*
b0 *!
0*"
b0 +
0+!
0+"
b0 ,
0,!
b0 ,"
0-
0-!
0-"
b0 .
0.!
0."
0/
0/!
b0 /"
00
00!
00"
01
01!
01"
12
02!
02"
13
03!
b0 3"
14
04!
b0 4"
b0 5
05!
b0 5"
b0 6
06!
b0 6"
17
07!
b0 7"
bx 8
b0 8!
b0 8"
09
b0 9!
b0 9"
b0 :
b0 :!
b0 :"
b0 ;
b0 ;!
0;"
b0 <
b0 <!
0<"
b0 =
b0 =!
0="
0>
0>!
b0 >"
0?
b0 ?!
b10000000000 ?"
0@
b100 @!
0@"
0A
0A!
b0 A"
b0 B
bx B!
b0 B"
0C
b0 C!
b0 C"
0D
b0 D!
b10000000000 D"
0E
bx E!
0F
xF!
0G
bx G!
1H
xH!
0I
bx I!
1J
xJ!
b10011 K
b0 K!
b0 L
b0 L!
b0 M
0M!
b0 N
0N!
b0 O
0O!
b0 P
1P!
0Q
bx Q!
0R
xR!
0S
bx S!
b100 T
bx T!
b0 U
bx U!
0V
bx V!
0W
1W!
b0 X
1X!
b0 Y
b0 Y!
0Z
b0 Z!
b0 [
bx [!
b0 \
x\!
0]
x]!
0^
0^!
b0 _
0_!
0`
bx `!
0a
bx a!
b0 b
bx b!
b0 c
bx c!
b0 d
bx d!
b0 e
xe!
b0 f
xf!
0g
xg!
0h
xh!
0i
b0 i!
0j
b0 j!
b0 k
bx k!
bx l
bx l!
0m
xm!
b0 n
bx n!
b0 o
bx o!
1p
bx p!
b10011 q
bx q!
0r
bx r!
b0 s
bx s!
b0 t
bx t!
0u
b0 u!
0v
b0 v!
0w
b0 w!
0x
b0 x!
0y
b0 y!
0z
b0 z!
0{
b0 {!
0|
b11111 |!
0}
b11111 }!
0~
bx ~!
$end

#5000
1!
b1001000000000011110010011 $
b0 $!
b10010 %!
b1111 &!
b0 '!
b0 (!
0)!
1/
1="
b1001000000000011110010011 >"
1@"
b0 E!
0F!
b0 G!
0H!
b0 I!
0J!
b0 Q!
0R!
b0 S!
b0 T!
b0 U!
b0 V!
b0 [!
0\!
0]!
b0 `!
b0 a!
b0 b!
b0 c!
b0 d!
b0 k!
b0 l!
0m!
b0 n!
b10010 o
b0 o!
0p
b0 p!
b0 q!
b0 r!
b1001000000000011110010011 s
b0 s!
b10010 t
b1111111111111111111111111111111111 t!
1u
1v

#10000
0!
0/
0="
0@"

#15000
1!
1/
1="
1@"

#20000
0!
1"
0/
10
0="
0@"
0P!

#25000
1!
1%
1/
1="
1@"
0H
0J
b1001000000000011110010011 K
b1001000000000011110010011 q
1r

#30000
0!
0/
0="
0@"

#35000
1!
b100 #
b10010 &
b10010 )"
b10010 *!
1+!
1+"
1,!
bx ,"
b100 .
1/
b100 5"
b10 6
19
b10010 :!
b10010 ;
b1111 ;!
b1111 <
1="
b100 ?!
b1000 @!
1@"
0A!
b10010 B
b10010 B!
b100 B"
1C
b111111111111111111111111111101110 C!
b111111111111111111111111111101110 D!
b100 P
b1000 T
b10010 U
b10010 Y
b10010 Z!
bx [
b10010 j!
b0 n
0r
b10010 x!
b111111111111111111111111111101110 y!
b10010 z!
b0 {!

#40000
0!
0/
0="
0@"

#45000
1!
b1000 #
b1100000000000011010010011 $
b0 $!
b11000 %!
b1101 &!
b0 '!
b0 (!
b10010 ,"
b1000 .
1."
1/
b1111 /"
b10 3"
b1000 5"
b100 :"
1="
b1100000000000011010010011 >"
b1000 ?!
b1100 @!
1@"
0A!
b1100000000000011010010011 K
b100 O
b1000 P
b1100 T
1Z
b10010 [
b1111 _
b10 c
b0 n
b11000 o
b1100000000000011010010011 s
b11000 t

#50000
0!
0/
0="
0@"

#55000
1!
b1100 #
b1111000010100010011 $
b1111 $!
b0 %!
b11000 &
b1010 &!
b0 '!
b0 (!
b11000 )"
b11000 *!
b1100 .
1/
b1100 5"
b0 6
b100 8!
b11000 :!
b1000 :"
b11000 ;
b1101 ;!
b1101 <
1="
b1111000010100010011 >"
b1100 ?!
b10000 @!
1@"
0A!
b11000 B
b11000 B!
b110 B"
b111111111111111111111111111101000 C!
b111111111111111111111111111101000 D!
b1111000010100010011 K
b100 N
b1000 O
b1100 P
b10000 T
b11000 U
b11000 Y
b11000 Z!
b11000 j!
b0 n
b0 o
b1111000010100010011 s
b0 t
b11000 x!
b111111111111111111111111111101000 y!
b11000 z!

#60000
0!
0/
0="
0@"

#65000
1!
b1011 !"
b10010 ""
b10000 #
b11 #"
b1101000010110010011 $
b1101 $!
b10010 $"
b0 %!
b10010 &
b1011 &!
b1 &"
b0 '!
b0 (!
b1 ("
b10010 )"
b0 *!
b11000 ,"
b10000 .
1/
b1101 /"
b0 3"
b10000 5"
b10 6
b1000 8!
b1111 9!
b1111 :
b0 :!
b1100 :"
b0 ;
b1010 ;!
b1010 <
1="
b1101000010110010011 >"
b10000 ?!
b10100 @!
1@"
0A!
b0 B
b10010 B!
b100 B"
b10010 C!
b10010 D!
b1101000010110010011 K
b10010 K!
b100 L!
b10010 M
b1000 N
b1100 O
b10000 P
b10100 T
b10010 U
b10010 X
b0 Y
b10010 Y!
b0 Z!
b11000 [
b1101 _
b0 c
b10010 i!
b0 j!
b0 n
b1101000010110010011 s
b10010 u!
b10010 v!
b10010 w!
b0 x!
b10010 y!
b10010 z!
b11011 |!
b11011 }!
b10010 ~!

#70000
0!
0/
0="
0@"

#75000
1!
1"!
b11000 ""
b10100 #
b10101101010001010100001011 $
b1010 $!
b11000 $"
b1011 %!
b11000 &
b1010 &!
b1 '!
b1 (!
b11000 )"
b10010 ,"
b10100 .
1/
b1010 /"
b10 3"
b10100 5"
b0 6
b1100 8!
b1101 9!
b1101 :
b10000 :"
b1011 ;!
b1011 <
1="
b10101101010001010100001011 >"
b10100 ?!
b11000 @!
1@"
0A!
b11000 B!
b110 B"
b11000 C!
b11000 D!
b10101101010001010100001011 K
b11000 K!
b11000 M
b1100 N
b10000 O
b10100 P
b11000 T
b11000 U
b11000 X
b11000 Y!
b10010 [
b1010 _
b10 c
b11000 i!
b0 n
b10101101010001010100001011 s
0u
b11000 u!
0v
b11000 v!
b11000 w!
b11000 y!
b11000 z!
b11000 ~!

#80000
0!
0/
0="
0@"

#85000
1!
0"!
b10010 ""
b11000 #
b1010000011100010011 $
b1010 $!
b10010 $"
b0 %!
b10010 &
b1110 &!
b0 '!
b0 (!
0+!
0,!
b11000 ,"
b11000 .
1/
b1011 /"
b0 3"
b11000 5"
b10 6
16!
b10000 8!
09
b1010 9!
b1010 :
b1011 :!
b10100 :"
b1011 ;
b1010 ;!
b1010 <
b1 <!
b1 =
b1 =!
1="
b1010000011100010011 >"
b11000 ?!
b11100 @!
1@"
0A!
b100 B"
0C
b111111111111111111111111111111010 C!
b111111111111111111111111111111010 D!
b1010000011100010011 K
b11000 L
b10010 M
b10000 N
b10100 O
b11000 P
b11100 T
b10010 U
b10010 X
b11000 Y
b10010 Y!
b11000 Z!
b11000 [
b1011 _
b0 c
1i
b10010 i!
b11000 j!
b1 k
b0 n
b1010000011100010011 s
1u
1v
b10010 v!
b10010 w!
b11000 x!
b111111111111111111111111111111010 y!
b11000 z!
b10010 {!
b10010 ~!

#90000
0!
0/
0="
0@"

#95000
1!
b11000 ""
b11100 #
b1111000010100010011 $
b1111 $!
b11000 $"
b0 %!
b11000 &
b1010 &!
b0 '!
b0 (!
1+!
1,!
b11100 .
1/
b1010 /"
b10 3"
b1 4"
b11100 5"
b0 6
06!
b10100 8!
19
b0 :!
b11000 :"
b0 ;
b1110 ;!
b1110 <
b0 <!
b0 =
b0 =!
1="
b1111000010100010011 >"
b11100 ?!
b100000 @!
1@"
0A!
b110 B"
1C
b11000 C!
b11000 D!
b1111000010100010011 K
b0 L
b11000 M
b10100 N
b11000 O
b11100 P
b100000 T
b11000 U
b11000 X
b0 Y
b11000 Y!
b0 Z!
b1 \
b1010 _
b10 c
0i
b11000 i!
b0 j!
b0 k
b0 n
b1111000010100010011 s
b11000 v!
b11000 w!
b0 x!
b11000 y!
b11000 z!
b0 {!
b11000 ~!

#100000
0!
0/
0="
0@"

#105000
1!
b10010 ""
b100000 #
b1101000010110010011 $
b1101 $!
b10010 $"
b0 %!
b10010 &
b1011 &!
b0 '!
b0 (!
b10010 )"
b100000 .
1/
b1110 /"
b0 3"
b0 4"
b100000 5"
b10 6
b11000 8!
b1111 9!
b1111 :
b11100 :"
b1010 ;!
b1010 <
1="
b1101000010110010011 >"
b100000 ?!
b100100 @!
1@"
0A!
b10010 B!
b100 B"
b10010 C!
b10010 D!
b1101000010110010011 K
b10010 K!
b10010 M
b11000 N
b11100 O
b100000 P
b100100 T
b10010 U
b10010 X
b10010 Y!
b0 \
b1110 _
b0 c
b10010 i!
b0 n
b1101000010110010011 s
b10010 u!
b10010 v!
b10010 w!
b10010 y!
b10010 z!
b10010 ~!

#110000
0!
0/
0="
0@"

#115000
1!
1"!
b11000 ""
b100100 #
b10101101010010010100001011 $
b1010 $!
b11000 $"
b1011 %!
b11000 &
b1010 &!
b10 '!
b1 (!
b11000 )"
b10010 ,"
b100100 .
1/
b1010 /"
b10 3"
b100100 5"
b0 6
b11100 8!
b1101 9!
b1101 :
b100000 :"
b1011 ;!
b1011 <
1="
b10101101010010010100001011 >"
b100100 ?!
b101000 @!
1@"
0A!
b11000 B!
b110 B"
b11000 C!
b11000 D!
b10101101010010010100001011 K
b11000 K!
b11000 M
b11100 N
b100000 O
b100100 P
b101000 T
b11000 U
b11000 X
b11000 Y!
b10010 [
b1010 _
b10 c
b11000 i!
b0 n
b10101101010010010100001011 s
0u
b11000 u!
0v
b11000 v!
b11000 w!
b11000 y!
b11000 z!
b11000 ~!

#120000
0!
0/
0="
0@"

#125000
1!
0"!
b10010 ""
b101000 #
b1010000011110010011 $
b1010 $!
b10010 $"
b0 %!
b10010 &
b1111 &!
b0 '!
b0 (!
b10010 )"
0+!
0,!
b11000 ,"
b101000 .
1/
b1011 /"
b0 3"
b101000 5"
b10 6
16!
b100000 8!
09
b1010 9!
b1010 :
b1011 :!
b100100 :"
b1011 ;
b1010 ;!
b1010 <
b10 <!
b10 =
b1 =!
1="
b1010000011110010011 >"
b101000 ?!
b101100 @!
1@"
0A!
b10010 B!
b100 B"
0C
b111111111111111111111111111111010 C!
b111111111111111111111111111111010 D!
b1010000011110010011 K
b10010 K!
b11000 L
b10010 M
b100000 N
b100100 O
b101000 P
b101100 T
b10010 U
b10010 X
0X!
b11000 Y
b10010 Y!
b11000 Z!
b11000 [
b1011 _
b0 c
1i
b10010 i!
b11000 j!
b1 k
b0 n
b1010000011110010011 s
1u
b10010 u!
1v
b10010 v!
b10010 w!
b11000 x!
b111111111111111111111111111111010 y!
b11000 z!
b10010 {!
b10010 ~!

#130000
0!
0/
0="
0@"

#135000
1!
b101100 #
b10000001111000000001100011 $
b1111 $!
b0 %!
b0 &!
b0 '!
b1 (!
1+!
1,!
b10010 ,"
b101100 .
1/
b1010 /"
b10 3"
b10 4"
b101100 5"
06!
b100100 8!
19
b0 :!
b101000 :"
b0 ;
b1111 ;!
b1111 <
b0 <!
b0 =
b0 =!
1="
b10000001111000000001100011 >"
b101100 ?!
b110000 @!
1@"
0A!
1C
b10010 C!
b10010 D!
b10000001111000000001100011 K
b0 L
b100100 N
b101000 O
b101100 P
b110000 T
1X!
b0 Y
b0 Z!
b10010 [
b10 \
b1010 _
b10 c
0i
b0 j!
b0 k
b0 n
b100000 o
b10000001111000000001100011 s
b100000 t
0u
0v
b0 x!
b10010 y!
1z
b10010 z!
b0 {!

#140000
0!
0/
0="
0@"

#145000
1!
b110000 #
b1110000010100010011 $
b1110 $!
b0 %!
b110010 &
b1010 &!
b0 '!
b0 (!
bx )"
b100000 *!
0+!
0+"
0,!
b110000 .
1/
b1111 /"
10!
b0 4"
b110000 5"
b101000 8!
09
b1111 9!
b1111 :
b101100 :"
b0 ;!
b0 <
b1 =!
1="
b1110000010100010011 >"
b110000 ?!
b110100 @!
1@"
0A!
b100000 B
bx B!
b1100 B"
0C
1G
b1110000010100010011 K
b101000 N
b101100 O
b110000 P
b110100 T
b110010 U
b0 \
b1111 _
b1 k
b0 n
b0 o
b1110000010100010011 s
b0 t
1u
1v
0z

#150000
0!
0/
0="
0@"

#155000
1!
b11000 ""
b110100 #
b1111000010110010011 $
b1111 $!
b11000 $"
b0 %!
b11000 &
b1011 &!
b0 '!
b0 (!
b11000 )"
b0 *!
1+!
1+"
1,!
bx ,"
b110100 .
0."
1/
b0 /"
00!
b110100 5"
b0 6
b101100 8!
19
b1110 9!
b1110 :
b110000 :"
b1010 ;!
b1010 <
b0 =!
1="
b1111000010110010011 >"
b110100 ?!
b111000 @!
1@"
0A!
b0 B
b11000 B!
b110 B"
1C
b11000 C!
b11000 D!
0G
b1111000010110010011 K
b11000 K!
b11000 M
b101100 N
b110000 O
b110100 P
b111000 T
b11000 U
b11000 X
b11000 Y!
0Z
bx [
b0 _
b11000 i!
b0 k
b0 n
b1111000010110010011 s
b11000 u!
b11000 v!
b11000 w!
b11000 y!
b11000 z!
b11000 ~!

#160000
0!
0/
0="
0@"

#165000
1!
1!!
b10010 ""
b111000 #
b10101101010110010100110011 $
b1010 $!
b10010 $"
b1011 %!
b10010 &
b1010 &!
b110 '!
b1 (!
b10010 )"
b11000 ,"
b111000 .
1."
1/
b1010 /"
b0 3"
b111000 5"
b10 6
b110000 8!
b1111 9!
b1111 :
b110100 :"
b1011 ;!
b1011 <
1="
b10101101010110010100110011 >"
b111000 ?!
b111100 @!
1@"
0A!
b10010 B!
b100 B"
b10010 C!
b10010 D!
b10101101010110010100110011 K
b10010 K!
b10010 M
b110000 N
b110100 O
b111000 P
b111100 T
b10010 U
b10010 X
b10010 Y!
1Z
b11000 [
b1010 _
b0 c
b10010 i!
b0 n
b10101101010110010100110011 s
0u
b10010 u!
b10010 v!
b10010 w!
b10010 y!
b10010 z!
b10010 ~!

#170000
0!
0/
0="
0@"

